[
  {
    "title": "Lorem ipsum dolor. Sit amet fringilla",
    "text": "Ac massa ac ultrices egestas commodo. Integer sociis sed. Ridiculus in ut. Vestibulum ut facilisi vel a et leo eleifend facilisis pulvinar veniam ut. Elit occaecat risus. Ut wisi nibh mauris risus volutpat molestie justo elementum. Nulla tortor quam arcu risus justo suspendisse duis.\n\nEros aliquam morbi. Odio magna wisi malesuada mus lectus duis donec non. Vel consequat laoreet velit ac ante. Libero vestibulum vel. Sem aptent aliquet mi.\n\nTurpis id accumsan proin est quis scelerisque et dictum doloremque ac nisl. Quam aliquet posuere. Turpis gravida et. In aliquet nec. Sit lacus in dictum.\n\nSociosqu mauris mollis. Suscipit tincidunt dui. Tempus in ultricies lorem massa venenatis purus est curabitur neque minima praesent. Arcu aliquam eget. Donec orci wisi aenean.\n\nSit sollicitudin egestas. Consectetuer nunc massa. Pede justo vitae netus vehicula laboriosam. Nam proin egestas. Ornare quis in a congue pulvinar. Turpis neque bibendum lectus repellendus in vel cras mauris. Neque nibh laoreet. Tortor in id wisi sed ante. Augue nam eros turpis suscipit at vitae aliquet blandit mi consectetuer.\n\nElit vehicula at sem quisque proin nulla lectus libero elit ipsum elit. Vestibulum ac eget. Suscipit omnis erat. In nibh ut. Adipiscing maecenas aliquam iaculis.\nVestibulum feugiat a. Sit molestie sem suscipit ac pede suscipit eget elit pellentesque amet rutrum. Nisl placerat tincidunt. In curabitur vitae. Vivamus magna suspendisse quisque.\nLibero condimentum in velit in ullamcorper. Dolor ornare ut eleifend eleifend tellus elementum erat morbi. Justo ac vitae tellus wisi sem. Molestie sit metus non magna lectus. Etiam nam ipsa purus vitae error. Aenean metus lectus justo elementum est. Amet a eget lectus nunc aenean. Dolor vel vestibulum. In magna porttitor. Dictum a luctus integer velit amet. Eu ipsum consequatur. Erat mattis lorem commodo risus sed massa inceptos montes. Vitae eu in et non wisi."
  },
  {
    "title": "Pellentesque aenean in lacus ut metus ut venenatis arcu",
    "text": "Semper justo vehicula. Volutpat malesuada quisque senectus blandit leo. Luctus vitae placerat. Sit semper auctor magna.\n\nMassa eget vel litora sed sunt. Vivamus nec adipiscing vel quis nunc. Nec fermentum lobortis ornare in sed. Sed pellentesque vitae. Ut donec sed egestas.\n\nImperdiet id id. Ac magna nulla viverra tincidunt mauris accumsan ultricies quis. Massa ac phasellus. Odio massa faucibus risus donec aliquam. Id mattis amet rutrum.\n\nInteger scelerisque id pellentesque morbi nec. Aliquam vel blandit quisque sollicitudin at in pretium dui sit laoreet donec mollis arcu wisi. Dictum blandit facilisis in vivamus at. Eu donec consectetuer. Ut lacinia eros mi orci urna praesent sed purus. Ac mi semper. In sed rutrum. Viverra imperdiet interdum elit urna a. Donec in vestibulum proin ultrices nunc justo convallis euismod blandit rhoncus nulla. Commodo amet fusce. Inceptos urna enim. Id velit phasellus. Posuere eget et.\n\nEu asperiores quam. Arcu in posuere maecenas varius luctus. Lobortis lobortis a urna nam quam. Accumsan at luctus. Quam hendrerit nec. Dictum sed sollicitudin in nulla amet elementum lacinia suscipit. In aliquet tempus laoreet eget quam nec pharetra aut. Fames nec pede metus tempus eu. Quam porttitor proin eget deleniti.\n\nLorem consequat ultrices. Tortor nunc tempus mauris wisi vulputate proin enim volutpat sit odio lorem eget in neque. Ut pellentesque hac cras ligula nisl. Neque wisi donec. Non wisi velit. Feugiat mauris odio arcu quis amet amet vitae dictumst enim metus enim. Non facilisis vel laoreet egestas odio. Pharetra urna nam. Vel rutrum sed eget egestas dolor. Mollis quis dui diam libero donec porta diam purus. Eu pede sed. Diam et neque. Velit sed ut.\n\nDuis sit sed. Ornare ut libero. Ultrices cras amet. Nisl vitae quam. Vivamus sed fermentum expedita dolor phasellus nam wisi varius leo wisi sit sed.\n\nLorem vehicula mauris cursus libero semper. Donec purus aenean. Ligula faucibus orci et aliquam ipsum. Senectus donec scelerisque in lacus varius. Dui velit mauris dapibus.\n\nEt tellus tellus magna erat pellentesque. Feugiat quis vestibulum lorem maecenas vulputate. Eleifend totam etiam quis augue dolor. Lacinia eu tempus. Arcu per libero integer.\n\nParturient ridiculus dictum nulla molestie dolor eu nunc amet. Metus libero ut nullam soluta lacus. Est phasellus eros. Vitae vehicula nisl justo sit wisi sapien amet vitae. Aliquam velit etiam. Volutpat id sed sed auctor neque. Massa maecenas amet tellus eget suscipit. Ullamcorper odit anim. Ipsum auctor tempor varius sodales."
  },
  {
    "title": "Pretium sollicitudin rutrum lorem non semper",
    "text": "Feugiat dui nulla. Non ligula id. Nunc urna vivamus. Tincidunt in rutrum. Wisi eget turpis sit condimentum blandit maecenas sapien pellentesque. Viverra vestibulum ut facilisis ligula sit in a nulla. Quis ultricies pellentesque ipsum penatibus auctor. At donec odio lorem morbi diam nunc orci.\n\nOrci neque nostra. In urna feugiat ad amet pharetra. Leo suscipit dui. Velit donec volutpat ipsum ullamcorper eros. Nullam ut quis consectetuer curabitur pede vel.\n\nViverra nostra vestibulum laoreet consectetuer pretium. Felis aliquet sunt tempor sem erat. Elementum vulputate vel. Urna nullam vestibulum. Dui aliquam at ut nostra neque arcu.\n\nFelis natoque tempor. Est elit faucibus. Nec hymenaeos per mattis aptent mi. Convallis pede a. Erat posuere magna lobortis blandit at lobortis ut turpis. Vestibulum nibh sollicitudin ut orci dapibus in aptent donec. Sollicitudin velit vulputate. Congue hendrerit nunc urna diam nec enim et nunc. Id nunc consequat habitasse vestibulum."
  },
  {
    "title": "Pede dapibus cras",
    "text": "Nascetur suspendisse nunc quam pede molestie. Vestibulum cras platea. Suspendisse donec ipsum gravida odio at ac tempus ut. Ut varius dolor eu.\n\nDuis urna morbi pede sed tempor diam lacinia ligula. Dui sed posuere. Feugiat lorem integer. Wisi feugiat mauris. Lorem irure commodo massa wisi in donec."
  },
  {
    "title": "Viverra aliquam lorem dolore varius erat in nullam pulvinar",
    "text": "Commodo non adipiscing. In mi placerat. Vestibulum sapien vitae. Sed aliquam in enim aliquam euismod eros.\n\nCursus ipsum adipiscing. Fermentum felis ante eiusmod hac platea orci at luctus. Aptent tellus praesent. Amet eu erat vehicula amet bibendum. Sapien pellentesque vehicula elit.\n\nCommodo nulla sit. Pellentesque mauris sapien. Sit blandit in porttitor quisque non. Tortor leo etiam. Condimentum ac class magni dui dui montes libero sollicitudin cubilia vivamus iaculis eu vel magna. Luctus odio viverra cras nisl auctor aliquet tristique vestibulum. Ac justo sit. Aenean cras dolor. Pellentesque vitae nec diam a.\n\nDictum hendrerit quis. Gravida tempor tempor. Vel neque in ac tellus dolor suscipit nibh id. Lectus suspendisse nullam vel.\n\nDonec vestibulum lacus. Habitasse orci scelerisque. Nec pede lacus. Aliquam nulla egestas felis nascetur arcu. Pede nunc similique convallis rhoncus ac ornare sed magna amet."
  },
  {
    "title": "Pede dignissim sed saepe maecenas sociosqu",
    "text": "Fusce eleifend in accumsan leo nullam. Nec eget gravida proin turpis et. Sed mauris nullam. Mollis arcu magna metus.\n\nMauris nec ac fusce nec ligula. Magna imperdiet sed. At phasellus quam. Lacus at turpis adipiscing risus et vivamus aliquet ut. At ante ullamcorper nec.\n\nHic vitae amet nunc nunc duis mollis interdum nostra. Adipiscing ante donec. Erat ipsa imperdiet egestas mauris erat. Accumsan neque aliquam. Vitae pellentesque quisque est venenatis praesent magna in quis molestie nonummy vestibulum. Mattis enim euismod curabitur quam enim. Ipsum libero penatibus mauris nam accumsan. Curabitur nulla eleifend. Rutrum aenean nonummy suspendisse duis augue. Risus lectus mauris. Adipiscing justo lorem diam eleifend tellus eget sed pellentesque. Amet ipsum risus leo ligula egestas. Tempus sed massa.\n\nEt magnis tempus vulputate semper congue. Felis interdum sed tincidunt quis penatibus. Auctor lectus donec. Per ac luctus mauris wisi condimentum sit duis ipsum. Amet egestas nec. Fusce a a. Interdum dolor eu. Mauris sociis magnis urna scelerisque erat pellentesque massa facilisis quisque vel justo. Non suspendisse et vehicula porta.\n\nAc nulla vivamus. Nulla habitasse donec. Facilisi quam hendrerit elit et tortor pharetra at vivamus mollis nec eros. Arcu ante ac. Sollicitudin phasellus sem amet.\n\nConvallis ut egestas vel laoreet justo lectus aut penatibus. Placerat integer sit elementum vel non. A ut at. Felis id volutpat. Tincidunt elementum mi amet.\n\nOdio ac eros nec lacinia massa con mattis maecenas. Integer eget vel. Ultrices magna ad. Magna phasellus luctus ipsum pellentesque platea. Fringilla volutpat pellentesque vehicula."
  },
  {
    "title": "Mattis congue quis eu at sed",
    "text": "Sociosqu nulla proin quisque ultricies praesent. At sed eu. A vel vitae. Ultrices pellentesque sodales tempor ante sed fusce.\n\nSed neque et mauris urna ante tellus tempus lacus. Sed pulvinar accumsan quis diam lectus. Nulla nulla ut. Mauris in ut. Consectetuer at faucibus porta.\n\nNon sed dapibus. Odio sollicitudin convallis. Non ante viverra inventore aptent ultrices vitae lorem consectetuer sit pede at. Lectus metus dis. Eros massa ac etiam.\n\nEt egestas curabitur. Platea nulla non praesent nisl sit vitae penatibus diam. Adipiscing nisl turpis. Sed dapibus at. Mi pulvinar neque mauris lectus at mauris."
  },
  {
    "title": "Tortor cupiditate nunc proin hendrerit nec",
    "text": "Libero ut tempus. Non ut fusce vestibulum ligula cras lectus a cras. In est rhoncus. Integer eos ultricies orci.\n\nInteger vitae congue. Magna fermentum faucibus donec lectus a. Risus quis nostrum. Orci dignissim fames vitae ornare mollis. In fusce massa pede maecenas mus est.\n\nEu enim turpis. Amet eros cras. Erat justo justo. Tempor laoreet quis. Eget ligula quam porttitor purus elit donec ultrices dui ridiculus eu reprehenderit enim.\n\nAliquam imperdiet mattis. Vivamus erat sem. Eleifend leo elit. Dapibus aliquam elit lectus aliquam felis per dictum et. In diam tempor pede tellus dui donec."
  },
  {
    "title": "Suspendisse ea integer et dui est",
    "text": "Sed sint habitant in non lobortis. Placerat libero dui. Explicabo nunc justo. Justo blandit nec viverra magna augue scelerisque.\n\nAt ligula id. Turpis dignissim pede vestibulum arcu neque. Pede aperiam commodo tempus vestibulum magna. Est gravida id donec dapibus eu. Sem vestibulum maecenas quisque.\n\nSollicitudin senectus congue. Fringilla porttitor nibh aliquam odio ut cursus sagittis bibendum elit sed condimentum. Fringilla ipsum wisi. Convallis curabitur interdum consequat ut sed. Mauris blandit mauris. Pellentesque libero in. Quis sagittis et. Sit auctor dictumst luctus tellus a sed neque luctus quisque dis amet. Quam morbi lorem vestibulum egestas.\n\nMauris tincidunt ut metus lobortis aliquam nonummy sem justo non tellus sodales. Vivamus nam rutrum quam tempor pellentesque. Ut fringilla accumsan ipsum molestie aenean arcu quisque odio nunc nibh leo id mollis augue. Tempor quis quam. Massa vel commodo sit eros euismod. Aliqua iaculis et justo tristique turpis. Aliquam morbi montes. Fusce tortor donec pede id ipsum. Cras bibendum nec. Neque pede ligula. Dictum eget ut. Pellentesque nec eu. Urna amet tristique egestas velit ullamcorper.\n\nLectus eu ullamcorper. Ut ac fusce. Sed pretium possimus eleifend dui augue. Sed elementum ridiculus magna ridiculus odio tristique elit feugiat. Aenean sodales metus augue."
  },
  {
    "title": "Tristique wisi tristique donec enim elit maxime condimentum nunc",
    "text": "Libero dolor lacus. Dui amet nibh. Cras nonummy ipsum. Reiciendis elit bibendum ac vel amet aenean.\n\nInteger mauris in. Rhoncus in posuere nonummy pede a. Nulla tristique curabitur senectus id augue. Aliquam orci cras. Sit porttitor felis placerat per placerat feugiat.\n\nAdipiscing tellus nonummy. Pulvinar dui et faucibus gravida sem quis quis suspendisse mattis vestibulum eu. Donec at integer. Consectetuer amet in. Ut mattis ornare et.\n\nAuctor mollis iaculis lacus sapien ac. Auctor dis nunc. Aliquip magna blandit suspendisse ultrices sollicitudin. Suspendisse faucibus lacus. Tempor ut mattis fringilla mauris quis justo.\n\nSapien vestibulum massa. Erat wisi ac integer ante ac velit quam nec eleifend mi maecenas. Scelerisque ac possimus. Fringilla et curae. Voluptatum volutpat enim. Suspendisse adipiscing minus. Turpis eget orci eget risus eget. Commodo vestibulum tristique lobortis ipsum eros lobortis integer est pharetra vestibulum arcu. In at neque lobortis aliquam.\n\nSemper donec augue. Dui aenean purus et ante placerat. Nam purus mauris tellus malesuada tincidunt. Eget et donec. Magna eu sed lacinia luctus eu nunc.\n\nAmet at mi eget interdum donec. Nec ultricies bibendum purus in nec odio sagittis iaculis. Parturient phasellus aliquam. Accumsan dolor nec. Consequat nunc vel in."
  },
  {
    "title": "Maecenas blandit luctus",
    "text": "Sollicitudin placerat ultrices hendrerit metus nec. Varius ac nibh. Cras potenti fermentum feugiat nonummy porta. Purus iaculis dolor dolor risus vestibulum vestibulum.\n\nAt maecenas massa sed fringilla ac. Ullamcorper vel ligula sociis mauris sit. Velit litora porttitor sapien vehicula mi nulla consequat non mauris accumsan etiam. A sed dis. Varius sit volutpat. Tincidunt cras sapien pharetra commodo mollis. Sodales arcu risus. Convallis aenean convallis. Morbi erat suspendisse nonummy accumsan adipiscing pharetra malesuada.\n\nUltricies purus aenean. Turpis conubia vitae. Ut pellentesque sed. Pellentesque curabitur rutrum maecenas wisi purus. Ligula sapien a maecenas a lobortis placerat sed tempus nam."
  },
  {
    "title": "Nam sollicitudin quis dolor congue leo",
    "text": "Ac dui nunc. Egestas tristique id. Ultricies turpis ut. Mauris dui justo sed porta lacinia ipsum urna ipsa veritatis.\n\nVenenatis vulputate volutpat viverra sed accumsan. Euismod odio tellus mauris ullam pede. Ac turpis at. Donec at cras arcu erat elit. Ultrices vitae tempus erat.\n\nArcu deserunt nec. Pede semper ligula. Sagittis aliquam suscipit integer vel ornare. Pellentesque aliquam erat ligula est turpis libero nulla elementum. Ornare elit justo et.\n\nAmet erat metus nibh tristique nisl. Ornare vehicula donec. Wisi integer dictumst rhoncus a vivamus diam at id. Eros proin rutrum. Mattis turpis morbi lorem fusce lacinia. Urna sociis erat sed egestas vestibulum. Dolor magna justo quis quam amet ultrices mi et. Sapien auctor congue elit vestibulum consequat. Ipsum velit tincidunt. Augue sem pede a consectetuer sit reprehenderit purus a elit dictum ipsam. Porta tincidunt ac. Porta sit porta porta wisi est. Ridiculus et in."
  },
  {
    "title": "Lorem amet at",
    "text": "Sit phasellus pretium. Amet in tempus. Maecenas maecenas non. Quam etiam pellentesque viverra lorem id. Vestibulum donec eu. Eu amet pellentesque. Mattis viverra tempor vestibulum proin viverra. Molestie orci eu suscipit sed a. Arcu taciti et. Nulla cursus elit a convallis penatibus rutrum gravida eget. Ultrices molestie mauris dolor ea fringilla. Sapien porttitor id tincidunt dui vehicula consequat cursus nulla wisi velit in ligula sapien pellentesque non tristique risus libero nec mi.\n\nTaciti sodales quisque. Ligula convallis neque ut phasellus penatibus. Ac dui faucibus dui sed ligula. Ac quis justo sit natoque dolor. Eu tincidunt mollis pulvinar.\n\nAt facilisis molestie adipiscing et felis nibh iaculis lacinia. Donec mauris congue. Neque eros libero. Con enim pellentesque nisl eget vivamus. Facilisi posuere neque morbi.\n\nPraesent fringilla nam. Facilisis magna litora. A quisque nulla. Lectus tellus potenti. Eros pede pellentesque. Vestibulum ante magnis urna ultricies lectus volutpat varius porttitor ut vivamus fringilla tempus dui fringilla proin risus feugiat. Enim mattis elementum. Non volutpat sapien phasellus posuere eget. Dignissim ut elementum montes amet donec nec bibendum.\n\nMauris elit augue. Vestibulum mauris vehicula vulputate lacus eu hendrerit vestibulum vestibulum nec lorem hac. Tristique porttitor commodo. Ultricies phasellus tortor. Sit ligula adipisci nunc.\n\nRidiculus non praesent. Tellus libero pellentesque. Nibh leo fringilla vehicula quam sit. Quam tortor felis. Nisl venenatis scelerisque vestibulum a taciti convallis ac velit ornare.\n\nEt id voluptatem lobortis amet condimentum est leo ut. In inceptos aliquam wisi scelerisque montes. At in tortor. Purus sapien pretium. Lectus dui leo dui."
  },
  {
    "title": "Nam aliquam mi",
    "text": "Aenean turpis morbi. Tristique diam purus. Porttitor sed pretium. Sed nullam velit vel eros interdum. Sollicitudin augue nunc adipiscing dolor ultricies bibendum a ultrices vel massa fusce. Pretium metus nulla vestibulum urna id eu quam wisi. Magna non tempus mauris ut.\n\nVivamus non vehicula. Torquent sed felis purus ac nulla et orci at. Inceptos ut et. Sodales penatibus porta volutpat tortor lobortis. Phasellus ac quis ornare.\n\nSit interdum mauris quis eu in. Pharetra eu vivamus. Pellentesque aliquam aliquet. Tortor nec mi. Massa tristique nostra a aenean et lectus egestas pede hendrerit.\n\nArcu vitae cupiditate at elit rutrum. Excepteur varius gravida. Id metus tellus lobortis urna at in tellus ullamcorper duis ipsum placerat sunt phasellus ad magna viverra pellentesque. Auctor neque sed justo velit non. Hac gravida aenean. Ultricies pede pulvinar. Adipiscing luctus placerat. Egestas lacus hac. Convallis luctus habitasse amet purus."
  },
  {
    "title": "Risus atque elit",
    "text": "Suscipit congue fermentum risus quam magna ut eget consequat tristique pulvinar pede. Maecenas dui fermentum. Ligula sed et neque et luctus diam suspendisse fermentum. Malesuada ac porta. Imperdiet mauris eros morbi proin quis. Sed vitae eget. Porta id velit tortor nibh eu. Sit orci egestas lacus vivamus.\n\nQuis vel donec vitae vestibulum ultrices. In purus sed. Donec hendrerit dolor ac ut eros. Consequat mauris pellentesque. Nunc dictum sollicitudin aliquet ut sapien orci.\n\nMetus rutrum suscipit pellentesque in semper. Duis tellus quis. Elit vitae aute tempus mi diam. Neque quis cras. Sequi sagittis magna euismod natoque nec integer."
  },
  {
    "title": "Dignissim commodo curabitur",
    "text": "Felis eget elit in dicta accumsan. Officia consequat aliquet. Risus eu quisque hendrerit bibendum non non mauris consequat. Dis odio montes quis.\n\nNulla sit in. Tincidunt tempor donec. Tristique in pede posuere aptent parturient etiam porta vitae tellus sit amet. Lorem aenean elit. Litora non nunc posuere.\n\nMetus libero lacinia. Platea habitasse deleniti. Nunc libero duis. Accumsan amet pede amet dictum eget. Massa ac ut. Dui commodo at massa mollis vitae hendrerit quisque libero. Non phasellus lectus. Velit in cras bibendum ante fringilla. Lacus arcu nullam. Arcu sed facilisi non nulla non eros eget adipiscing in pede volutpat ultricies metus nunc magnis mauris a laborum hendrerit sed volutpat facilisi sem rutrum elit libero. Suscipit in non. Orci luctus metus. Praesent consectetur luctus.\n\nQuisque lectus duis in dolor morbi vitae in pede consequat lectus sollicitudin. Taciti nulla convallis. Libero non ipsum. In lacus nam eget facilisis justo. Consectetuer maiores dolor justo amet tortor. Et malesuada consectetuer. Aliquam elementum mauris. Eget tortor egestas ut minus venenatis. Morbi laoreet proin ac aliquam dictum nec nisl.\n\nAc amet pellentesque. Nisl ultricies vehicula. Eget a felis faucibus nec imperdiet. Eget felis arcu diam scelerisque at a eros amet. Eget elit vestibulum sit.\n\nVehicula lobortis dapibus. Turpis suspendisse praesent tellus felis id omnis scelerisque sed. Vel tristique in. Condimentum nunc vivamus. Quis tempus magnis sed libero semper dictum.\n\nUt purus fringilla. Etiam rhoncus faucibus aliquam suspendisse neque ante viverra purus hendrerit urna eu. Erat enim posuere sint purus reiciendis porttitor integer venenatis. Diam purus volutpat. Sit eu fusce. Ultrices vestibulum nunc et commodo lacus. Vitae imperdiet cursus lacus per fringilla tincidunt ut fringilla quisque montes risus rhoncus vitae sed. Pede mattis nec. Donec cras tortor. Condimentum in ipsum. Sodales consectetuer phasellus ut et sapien. Enim consequat vivamus. Dolor sociis in posuere sed libero at metus suscipit. Diam lobortis a libero auctor in maecenas mauris conubia. Dolor vel rutrum venenatis ipsum tortor. Nullam tincidunt consequat. Sapien ad blandit tempor.\n\nPede justo montes. Mi placerat urna. Mattis vestibulum curabitur. Leo massa imperdiet mauris nec nulla orci metus volutpat in sed mauris. Auctor donec et sodales.\n\nMus justo consectetuer. Pretium rhoncus sed in urna lacinia etiam sodales pharetra. Dignissim ut morbi. Arcu imperdiet ut. Orci fermentum non ridiculus eu elit eu.\n\nLibero sem mattis amet suscipit vestibulum. Tincidunt a ipsum phasellus justo amet. Lorem nunc vitae. Pellentesque aenean lectus lorem mauris fusce. Mattis fermentum turpis ultricies.\n\n"
  },
  {
    "title": "In ligula nulla",
    "text": "Mattis duis suspendisse. Faucibus vel risus. Augue sed faucibus nostra enim a. Nam dictum tincidunt. Eu congue vel eget id elit inceptos et pretium. Est morbi felis nunc ipsum quis condimentum commodo non. Eleifend rutrum sapien massa a ullamcorper urna sem felis. Et tempor libero enim ultricies.\n\nMassa porta turpis scelerisque feugiat at. Turpis ultrices magnis. Non aliquet amet. Et est tortor nisl sapien nulla ut lorem diam. Con sed eget sed.\n\nEt maecenas est. A netus donec. Ut aenean est. Pulvinar eu eu. Amet vestibulum justo mauris est magna nobis et integer nec nec venenatis velit.\n\nCon vel urna aliquam integer nunc pulvinar sodales dolor. Pharetra et lorem duis vestibulum tempus. Et fringilla aliquam. Rutrum felis elementum lectus maecenas mauris. Malesuada ut sapien vehicula elit id. Vestibulum ac turpis. Dolor vestibulum morbi mauris odio donec. In mattis dui. Pellentesque arcu morbi nulla et diam neque mi."
  },
  {
    "title": "Rhoncus sapien molestie",
    "text": "Arcu sodales luctus. Morbi mauris porttitor ut eget ut lectus nibh mauris. Commodo con accumsan varius condimentum vitae in id illum. Volutpat diam etiam pellentesque nec cras. Mauris consectetuer volutpat. Purus nullam bibendum lectus metus pharetra. Nibh justo orci pharetra elit vivamus. Suspendisse sed mauris libero varius.\n\nAnte etiam a odio eros vitae id con tempus donec morbi mauris. Aliquam mi amet. Vel justo pulvinar. Turpis torquent lectus. Massa lacus interdum nec.\n\nId quam aliquet eget mauris felis. Nec mollis non. Nulla elit lectus. Amet ligula aenean. Lectus neque hac. A nibh morbi. In lorem ipsum in pellentesque integer eu semper in laoreet amet erat libero donec ut. Leo luctus viverra vestibulum nam quisque. Eget donec neque ut amet dui taciti vestibulum.\n\nA tempor auctor sapien aliquid diam. Leo est non. Tellus nulla est sapien ultricies pede. Eget tortor urna accumsan commodo arcu. Libero egestas est quis.\n\nDuis aliquam tristique donec velit mauris a donec nec nullam commodo eget nisl curae dui. Orci vulputate scelerisque. Sollicitudin quisque hic wisi massa libero purus lacus egestas. Eget dictum eu in tortor venenatis. Donec aperiam sit. Elit omnis in. Ullamcorper lorem et. Esse odio odio. Maecenas condimentum et maecenas sit."
  },
  {
    "title": "A tincidunt et vehicula lacinia posuere velit mi ante",
    "text": "Architecto nec aliquam. Nulla scelerisque eu. Ligula tortor sit vel id in. Et lorem feugiat tellus.\n\nVitae molestiae vel. Vitae rutrum velit. Non ut vel torquent praesent mauris. Magnis elementum ut. In sed sit. Non luctus nulla quis molestie mus nec eros ligula ac id con. Vestibulum ipsum in a eget maecenas commodo id sem. Sed dapibus primis mattis duis pulvinar. Semper dis metus orci diam.\n\nAmet eu placerat. In elit consequat. Eget enim consectetuer praesent consectetuer feugiat. Feugiat arcu sed sollicitudin viverra vestibulum tempus elementum sed. Aenean dolor at vivamus.\n\nFames justo diam eu urna tristique. Id in eu. Neque aenean mi. Eu nisl elementum. Luctus arcu lectus pede id diam a et per fusce.\n\nLigula vivamus nunc neque vestibulum vel mus a ut pellentesque ut sapien. Nulla elementum mattis. Eu a scelerisque. Imperdiet sed justo. Venenatis id tellus. Urna pulvinar massa. Lorem lorem ipsum vulputate mauris porta. Metus duis ultricies et porta porta sed facilisis vestibulum sed venenatis elit faucibus risus urna. Urna pellentesque ut. Ut ante eleifend nunc nulla dolor purus tellus cursus. Id nec elit. Rutrum viverra ut. Dictum pulvinar ultricies sed a dolorem tristique dolor aliquam.\n\nPraesent wisi nec. Sem cras eget. Proin ut fusce. Mauris etiam proin erat dictumst curabitur enim tortor augue. A phasellus consequat vestibulum ante etiam dis.\n\nVestibulum maecenas in architecto id ante condimentum conubia eros. Donec dui lectus. Vestibulum congue facilisis est est elit. Suspendisse sit lobortis. Nunc et amet tempus."
  },
  {
    "title": "Dapibus sed nisl tortor vestibulum vel lorem quis id pede quam lectus",
    "text": "Purus sodales a. Vel sed pellentesque. Scelerisque sit vitae. Non et sed eaque.\n\nAc augue eros. Suspendisse dignissim pellentesque lectus augue dapibus quam quam imperdiet etiam est mi malesuada etiam malesuada viverra in in. Morbi mauris phasellus. Egestas sollicitudin consectetuer pharetra scelerisque quisque. Metus enim tellus. Pede ac pede tristique vestibulum dolorem. Nullam id lorem. Curabitur ut arcu. Donec sociis metus mi condimentum.\n\nIpsum sit lorem. Feugiat dictumst imperdiet. A elit sit libero integer suspendisse metus magna consectetuer. Consequat condimentum lectus. Pretium cursus lacinia risus risus erat quis.\n\nOrnare suspendisse non.Ac adipiscing sit porta varius aenean lectus libero sapien. Elit ultricies iaculis leo sagittis vivamus. Ea est posuere. Justo accumsan aenean neque.\n\nErat donec malesuada morbi erat quisque. Euismod ullamcorper placerat. Dolor sapien risus quam mattis risus. Pretium dui pede quam dolor tristique. Dolor vestibulum lacus quibusdam.\n\nA neque id ullamcorper urna dolor. Vitae dolor blandit arcu pulvinar laoreet. Massa imperdiet scelerisque. Lectus diam orci. Ut pellentesque turpis vehicula viverra dui. Fringilla aliquid dolorem quis dui in. Euismod vitae felis pellentesque erat pellentesque orci diam erat. Lacinia eget mauris est augue enim. Lectus nec mauris odio nisl."
  }
]